country,cod,ocha_country_office,available_and_processed,to_be_itos_processed,to_be_updated,to_be_collected
Benin,Admin boundaries,0,0,1,0,0
Benin,Settlements,0,0,1,0,0
Benin,Humanitarian profile,0,0,0,0,1
Benin,Airports,0,0,0,1,0
Benin,Population data,0,0,0,0,1
Benin,Health facilities,0,0,0,1,0
Benin,Roads,0,0,0,1,0
Benin,Rivers,0,0,0,1,0
Benin,Schools,0,0,0,0,1
Benin,Railways,0,0,0,1,0
Burkina Faso,Admin boundaries,0,1,0,0,0
Burkina Faso,Settlements,0,1,0,0,0
Burkina Faso,Humanitarian profile,0,1,0,0,0
Burkina Faso,Airports,0,1,0,0,0
Burkina Faso,Population data,0,0,0,0,1
Burkina Faso,Health facilities,0,0,0,1,0
Burkina Faso,Roads,0,0,0,1,0
Burkina Faso,Rivers,0,0,0,1,0
Burkina Faso,Schools,0,0,0,0,1
Burkina Faso,Railways,0,0,0,1,0
Cameroon,Admin boundaries,1,0,1,0,0
Cameroon,Settlements,1,0,1,0,0
Cameroon,Humanitarian profile,1,1,0,0,0
Cameroon,Airports,1,0,0,1,0
Cameroon,Population data,1,1,0,0,0
Cameroon,Health facilities,1,0,0,1,0
Cameroon,Roads,1,0,0,1,0
Cameroon,Rivers,1,0,0,1,0
Cameroon,Schools,1,0,0,0,1
Cameroon,Railways,1,0,0,1,0
Cape Verde,Admin boundaries,0,0,1,0,0
Cape Verde,Settlements,0,0,1,0,0
Cape Verde,Humanitarian profile,0,0,0,0,1
Cape Verde,Airports,0,0,0,1,0
Cape Verde,Population data,0,0,0,0,1
Cape Verde,Health facilities,0,0,0,1,0
Cape Verde,Roads,0,0,0,1,0
Cape Verde,Rivers,0,0,0,1,0
Cape Verde,Schools,0,0,0,0,1
Cape Verde,Railways,0,0,0,0,1
Central African Republic,Admin boundaries,1,1,0,0,0
Central African Republic,Settlements,1,1,0,0,0
Central African Republic,Humanitarian profile,1,1,0,0,0
Central African Republic,Airports,1,1,0,0,0
Central African Republic,Population data,1,1,0,0,0
Central African Republic,Health facilities,1,0,0,1,0
Central African Republic,Roads,1,0,0,1,0
Central African Republic,Rivers,1,0,0,1,0
Central African Republic,Schools,1,0,0,0,1
Central African Republic,Railways,1,0,0,0,1
Congo,Admin boundaries,0,0,1,0,0
Congo,Settlements,0,0,1,0,0
Congo,Humanitarian profile,0,0,0,0,1
Congo,Airports,0,0,0,1,0
Congo,Population data,0,0,0,0,1
Congo,Health facilities,0,0,0,1,0
Congo,Roads,0,0,0,1,0
Congo,Rivers,0,0,0,1,0
Congo,Schools,0,0,0,0,1
Congo,Railways,0,0,0,1,0
Cote d'Ivoire,Admin boundaries,0,1,0,0,0
Cote d'Ivoire,Settlements,0,1,0,0,0
Cote d'Ivoire,Humanitarian profile,0,0,0,0,1
Cote d'Ivoire,Airports,0,1,0,0,0
Cote d'Ivoire,Population data,0,0,0,0,1
Cote d'Ivoire,Health facilities,0,0,0,1,0
Cote d'Ivoire,Roads,0,0,0,1,0
Cote d'Ivoire,Rivers,0,0,0,1,0
Cote d'Ivoire,Schools,0,0,0,0,1
Cote d'Ivoire,Railways,0,0,0,1,0
Democratic Republic of Congo,Admin boundaries,1,0,1,0,0
Democratic Republic of Congo,Settlements,1,0,1,0,0
Democratic Republic of Congo,Humanitarian profile,1,1,0,0,0
Democratic Republic of Congo,Airports,1,0,0,1,0
Democratic Republic of Congo,Population data,1,0,0,0,1
Democratic Republic of Congo,Health facilities,1,0,0,0,1
Democratic Republic of Congo,Roads,1,0,0,1,0
Democratic Republic of Congo,Rivers,1,0,0,1,0
Democratic Republic of Congo,Schools,1,0,0,0,1
Democratic Republic of Congo,Railways,1,0,0,1,0
Equatorial Guinea,Admin boundaries,0,0,1,0,0
Equatorial Guinea,Settlements,0,0,1,0,0
Equatorial Guinea,Humanitarian profile,0,0,0,0,1
Equatorial Guinea,Airports,0,0,0,1,0
Equatorial Guinea,Population data,0,0,0,0,1
Equatorial Guinea,Health facilities,0,0,0,1,0
Equatorial Guinea,Roads,0,0,0,1,0
Equatorial Guinea,Rivers,0,0,0,0,1
Equatorial Guinea,Schools,0,0,0,0,1
Equatorial Guinea,Railways,0,0,0,0,1
Gabon,Admin boundaries,0,0,1,0,0
Gabon,Settlements,0,0,1,0,0
Gabon,Humanitarian profile,0,0,0,0,1
Gabon,Airports,0,0,0,1,0
Gabon,Population data,0,0,0,0,1
Gabon,Health facilities,0,0,0,1,0
Gabon,Roads,0,0,0,1,0
Gabon,Rivers,0,0,0,0,1
Gabon,Schools,0,0,0,0,1
Gabon,Railways,0,0,0,0,1
Gambia,Admin boundaries,0,0,1,0,0
Gambia,Settlements,0,0,1,0,0
Gambia,Humanitarian profile,0,0,0,0,1
Gambia,Airports,0,0,0,1,0
Gambia,Population data,0,0,0,0,1
Gambia,Health facilities,0,0,0,1,0
Gambia,Roads,0,0,0,1,0
Gambia,Rivers,0,0,0,1,0
Gambia,Schools,0,0,0,0,1
Gambia,Railways,0,0,0,0,1
Ghana,Admin boundaries,0,0,1,0,0
Ghana,Settlements,0,0,1,0,0
Ghana,Humanitarian profile,0,0,0,0,1
Ghana,Airports,0,0,0,1,0
Ghana,Population data,0,0,0,0,1
Ghana,Health facilities,0,0,0,1,0
Ghana,Roads,0,0,0,1,0
Ghana,Rivers,0,0,0,1,0
Ghana,Schools,0,0,0,0,1
Ghana,Railways,0,0,0,1,0
Guinea,Admin boundaries,0,0,1,0,0
Guinea,Settlements,0,0,1,0,0
Guinea,Humanitarian profile,0,0,0,0,1
Guinea,Airports,0,0,0,1,0
Guinea,Population data,0,0,0,1,0
Guinea,Health facilities,0,0,0,1,0
Guinea,Roads,0,0,0,1,0
Guinea,Rivers,0,0,0,1,0
Guinea,Schools,0,0,0,0,1
Guinea,Railways,0,0,0,1,0
Guinea Bissau,Admin boundaries,0,0,1,0,0
Guinea Bissau,Settlements,0,0,1,0,0
Guinea Bissau,Humanitarian profile,0,0,0,0,1
Guinea Bissau,Airports,0,0,0,1,0
Guinea Bissau,Population data,0,0,0,0,1
Guinea Bissau,Health facilities,0,0,0,1,0
Guinea Bissau,Roads,0,0,0,1,0
Guinea Bissau,Rivers,0,0,0,0,1
Guinea Bissau,Schools,0,0,0,0,1
Guinea Bissau,Railways,0,0,0,0,1
Liberia,Admin boundaries,0,0,1,0,0
Liberia,Settlements,0,0,1,0,0
Liberia,Humanitarian profile,0,0,0,0,1
Liberia,Airports,0,0,0,1,0
Liberia,Population data,0,0,0,1,0
Liberia,Health facilities,0,0,0,1,0
Liberia,Roads,0,0,0,1,0
Liberia,Rivers,0,0,0,1,0
Liberia,Schools,0,0,0,0,1
Liberia,Railways,0,0,0,1,0
Mali,Admin boundaries,1,1,0,0,0
Mali,Settlements,1,1,0,0,0
Mali,Humanitarian profile,1,1,0,0,0
Mali,Airports,1,0,0,1,0
Mali,Population data,1,1,0,0,0
Mali,Health facilities,1,0,0,1,0
Mali,Roads,1,1,0,0,0
Mali,Rivers,1,1,0,0,0
Mali,Schools,1,0,0,0,1
Mali,Railways,1,0,0,1,0
Mauritania,Admin boundaries,0,1,0,0,0
Mauritania,Settlements,0,1,0,0,0
Mauritania,Humanitarian profile,0,0,0,0,1
Mauritania,Airports,0,0,0,1,0
Mauritania,Population data,0,0,0,1,0
Mauritania,Health facilities,0,0,0,1,0
Mauritania,Roads,0,0,0,1,0
Mauritania,Rivers,0,0,0,1,0
Mauritania,Schools,0,0,0,0,1
Mauritania,Railways,0,0,0,1,0
Niger,Admin boundaries,1,1,0,0,0
Niger,Settlements,1,1,0,0,0
Niger,Humanitarian profile,1,1,0,0,0
Niger,Airports,1,0,0,1,0
Niger,Population data,1,0,0,1,0
Niger,Health facilities,1,1,0,0,0
Niger,Roads,1,0,0,1,0
Niger,Rivers,1,0,0,1,0
Niger,Schools,1,0,0,0,1
Niger,Railways,1,0,0,0,1
Nigeria,Admin boundaries,1,1,0,0,0
Nigeria,Settlements,1,0,1,0,0
Nigeria,Humanitarian profile,1,1,0,0,0
Nigeria,Airports,1,0,0,1,0
Nigeria,Population data,1,0,0,1,0
Nigeria,Health facilities,1,0,0,1,0
Nigeria,Roads,1,0,0,1,0
Nigeria,Rivers,1,0,0,1,0
Nigeria,Schools,1,0,0,0,1
Nigeria,Railways,1,0,0,1,0
Sao Tome & Principe,Admin boundaries,0,0,1,0,0
Sao Tome & Principe,Settlements,0,0,1,0,0
Sao Tome & Principe,Humanitarian profile,0,0,0,0,1
Sao Tome & Principe,Airports,0,0,0,0,1
Sao Tome & Principe,Population data,0,0,0,0,1
Sao Tome & Principe,Health facilities,0,0,0,0,1
Sao Tome & Principe,Roads,0,0,0,0,1
Sao Tome & Principe,Rivers,0,0,0,0,1
Sao Tome & Principe,Schools,0,0,0,0,1
Sao Tome & Principe,Railways,0,0,0,0,1
Senegal,Admin boundaries,0,1,0,0,0
Senegal,Settlements,0,1,0,0,0
Senegal,Humanitarian profile,0,1,0,0,0
Senegal,Airports,0,0,0,1,0
Senegal,Population data,0,1,0,0,0
Senegal,Health facilities,0,0,0,1,0
Senegal,Roads,0,0,0,1,0
Senegal,Rivers,0,0,0,1,0
Senegal,Schools,0,0,0,1,0
Senegal,Railways,0,0,0,1,0
Sierra Leone,Admin boundaries,0,1,0,0,0
Sierra Leone,Settlements,0,1,0,0,0
Sierra Leone,Humanitarian profile,0,0,0,0,1
Sierra Leone,Airports,0,0,0,1,0
Sierra Leone,Population data,0,0,0,0,1
Sierra Leone,Health facilities,0,1,0,0,0
Sierra Leone,Roads,0,0,0,1,0
Sierra Leone,Rivers,0,0,0,1,0
Sierra Leone,Schools,0,0,0,0,1
Sierra Leone,Railways,0,0,0,1,0
Tchad,Admin boundaries,1,1,0,0,0
Tchad,Settlements,1,1,0,0,0
Tchad,Humanitarian profile,1,1,0,0,0
Tchad,Airports,1,0,0,1,0
Tchad,Population data,1,1,0,0,0
Tchad,Health facilities,1,1,0,0,0
Tchad,Roads,1,0,0,1,0
Tchad,Rivers,1,0,0,1,0
Tchad,Schools,1,0,0,0,1
Tchad,Railways,1,0,0,1,0
Togo,Admin boundaries,0,0,1,0,0
Togo,Settlements,0,0,1,0,0
Togo,Humanitarian profile,0,0,0,0,1
Togo,Airports,0,0,0,1,0
Togo,Population data,0,0,0,0,1
Togo,Health facilities,0,0,0,1,0
Togo,Roads,0,0,0,1,0
Togo,Rivers,0,0,0,1,0
Togo,Schools,0,0,0,0,1
Togo,Railways,0,0,0,1,0
